C:\Users\protuberanzen\IdeaProjects\docker-lab\src\main\java\ru\nstu\controller\MainController.java
C:\Users\protuberanzen\IdeaProjects\docker-lab\src\main\java\ru\nstu\service\CommentaryService.java
C:\Users\protuberanzen\IdeaProjects\docker-lab\src\main\java\ru\nstu\entity\Commentary.java
C:\Users\protuberanzen\IdeaProjects\docker-lab\src\main\java\ru\nstu\repository\CommentaryRepository.java
C:\Users\protuberanzen\IdeaProjects\docker-lab\src\main\java\ru\nstu\Application.java
